
@startuml Use Cases

left to right direction
skinparam packageStyle rect
skinparam componentStyle uml2

actor Gast
actor Admin

rectangle PflanzenShop {
    Gast --> (Pflanze suchen)
    Gast --> (Binärdateien herunterladen)
    Gast --> (Versandarten suchen)
    Admin --> (Pflanze suchen)
    Admin --> (Pflanze anlegen)
    Admin --> (Pflanze abändern)
    Admin --> (Pflanze löschen)
    Admin --> (Binärdateien hochladen)
    Admin --> (Binärdateien herunterladen)
    Admin --> (Versandarten suchen)
}

footer (c) Linnamäki, Barnes, Wünsch, Weber

@enduml
